{
  "nodes": [
    {
      "id": "0",
      "name": "Camera",
      "children": [],
      "components": [
        {
          "type": "Camera",
          "config": {
            "mode": "orthographic",
            "fov": 45,
            "orthographicScale": 35,
            "viewport": {
              "x": 0,
              "y": 0,
              "width": 1,
              "height": 1
            }
          },
          "id": "0"
        }
      ],
      "position": {
        "x": 0,
        "y": 0,
        "z": 10
      },
      "orientation": {
        "x": 0,
        "y": 0,
        "z": 0,
        "w": 1
      },
      "scale": {
        "x": 1,
        "y": 1,
        "z": 1
      }
    },
    {
      "id": "1",
      "name": "Instructions",
      "children": [],
      "components": [
        {
          "type": "TextRenderer",
          "config": {
            "fontAssetId": "58",
            "text": "2: Player Vs Player\n\n1: Player Vs CPU\n\n0: CPU Vs CPU\n\nWASD or ZQSD for P1\n↑ ↓ → ←             for P2",
            "alignment": "center",
            "size": 100,
            "color": null,
            "verticalAlignment": "center"
          },
          "id": "0"
        },
        {
          "type": "Behavior",
          "config": {
            "behaviorName": "StartMenuBehavior",
            "propertyValues": {}
          },
          "id": "1"
        }
      ],
      "position": {
        "x": 0,
        "y": 0,
        "z": -30
      },
      "orientation": {
        "x": 0,
        "y": 0,
        "z": 0,
        "w": 1
      },
      "scale": {
        "x": 0.75,
        "y": 0.75,
        "z": 1
      }
    }
  ]
}