{
  "filtering": "pixelated",
  "pixelsPerUnit": 32,
  "framesPerSecond": 10,
  "alphaTest": 0.1,
  "grid": {
    "width": 33,
    "height": 32
  },
  "origin": {
    "x": 0.5,
    "y": 0.35
  },
  "animations": []
}